<svg width="2427" height="2427" viewBox="0 0 2427 2427" fill="none" xmlns="http://www.w3.org/2000/svg">
<path d="M1214 971L909.6 1456M1670.6 971L453 1456L757.4 971L1366.2 1456M1670.6 971L1975 1213.5L1366.2 1456M1670.6 971L1518.4 1213.5L1366.2 1456" stroke="black" stroke-width="134" stroke-linecap="round" stroke-linejoin="round"/>
</svg>
